<?xml version="1.0" encoding="UTF-8" standalone="no"?>
<!-- Created with Inkscape (http://www.inkscape.org/) -->

<svg
   xmlns:dc="http://purl.org/dc/elements/1.1/"
   xmlns:cc="http://creativecommons.org/ns#"
   xmlns:rdf="http://www.w3.org/1999/02/22-rdf-syntax-ns#"
   xmlns:svg="http://www.w3.org/2000/svg"
   xmlns="http://www.w3.org/2000/svg"
   xmlns:sodipodi="http://sodipodi.sourceforge.net/DTD/sodipodi-0.dtd"
   xmlns:inkscape="http://www.inkscape.org/namespaces/inkscape"
   width="10cm"
   height="9cm"
   viewBox="0 0 354.33071 318.89759"
   id="svg2"
   version="1.1"
   inkscape:version="0.91 r13725"
   sodipodi:docname="screen-retext.svg"
   inkscape:export-filename="/media/h4ck3r/GrosDisque/Fichiersdetravail/Projets_Libres/LIVRESENCOURS/manueldumo/images/screen-retextNEW.png"
   inkscape:export-xdpi="300"
   inkscape:export-ydpi="300">
  <defs
     id="defs4" />
  <sodipodi:namedview
     id="base"
     pagecolor="#ffffff"
     bordercolor="#666666"
     borderopacity="1.0"
     inkscape:pageopacity="0.0"
     inkscape:pageshadow="2"
     inkscape:zoom="1.4"
     inkscape:cx="153.59586"
     inkscape:cy="161.48879"
     inkscape:document-units="px"
     inkscape:current-layer="layer1"
     showgrid="false"
     units="cm"
     inkscape:window-width="1920"
     inkscape:window-height="1026"
     inkscape:window-x="0"
     inkscape:window-y="0"
     inkscape:window-maximized="1"
     fit-margin-top="0.1"
     fit-margin-left="0.1"
     fit-margin-bottom="0.1"
     fit-margin-right="0.1"
     borderlayer="true" />
  <metadata
     id="metadata7">
    <rdf:RDF>
      <cc:Work
         rdf:about="">
        <dc:format>image/svg+xml</dc:format>
        <dc:type
           rdf:resource="http://purl.org/dc/dcmitype/StillImage" />
        <dc:title></dc:title>
      </cc:Work>
    </rdf:RDF>
  </metadata>
  <g
     inkscape:label="Calque 1"
     inkscape:groupmode="layer"
     id="layer1"
     transform="translate(-2.3897126,-733.74083)">
    <rect
       style="opacity:1;fill:#ffffff;fill-opacity:1;stroke:none;stroke-width:1.5;stroke-linejoin:round;stroke-miterlimit:4;stroke-dasharray:none;stroke-dashoffset:0;stroke-opacity:1"
       id="rect4192"
       width="440"
       height="355"
       x="-68.324577"
       y="716.92413" />
    <rect
       style="opacity:1;fill:#ffffff;fill-opacity:1;stroke:#000000;stroke-width:1.99673748;stroke-linejoin:round;stroke-miterlimit:4;stroke-dasharray:none;stroke-dashoffset:0;stroke-opacity:1"
       id="rect4136"
       width="348.51685"
       height="300.89151"
       x="6.5936284"
       y="746.71759"
       ry="15.836396" />
    <g
       id="g4189"
       transform="matrix(0.50209234,-0.51084925,0.51379304,0.4992156,160.63217,621.10936)">
      <path
         id="rect4148-3"
         d="m 37.079917,306.64048 c -0.95342,0 -1.72193,0.76699 -1.72193,1.72041 l 0,4.42652 -4.37632,0 c -0.95343,0 -1.72042,0.76699 -1.72042,1.72041 0,0.95342 0.76699,1.72041 1.72042,1.72041 l 4.37632,0 0,4.62275 c 0,0.95341 0.76851,1.72041 1.72193,1.72041 0.95341,0 1.72041,-0.767 1.72041,-1.72041 l 0,-4.62275 4.67142,0 c 0.95342,0 1.72041,-0.76699 1.72041,-1.72041 0,-0.95342 -0.76699,-1.72041 -1.72041,-1.72041 l -4.67142,0 0,-4.42652 c 0,-0.95342 -0.767,-1.72041 -1.72041,-1.72041 z"
         style="opacity:1;fill:#000000;fill-opacity:1;stroke:none;stroke-width:3.54330707;stroke-linejoin:round;stroke-miterlimit:4;stroke-dasharray:none;stroke-dashoffset:0;stroke-opacity:1"
         inkscape:connector-curvature="0" />
      <flowRoot
         xml:space="preserve"
         id="flowRoot4194"
         style="font-style:normal;font-weight:normal;font-size:40px;line-height:125%;font-family:sans-serif;letter-spacing:0px;word-spacing:0px;fill:#000000;fill-opacity:1;stroke:none;stroke-width:1px;stroke-linecap:butt;stroke-linejoin:miter;stroke-opacity:1"
         transform="matrix(0.69891616,0.71520361,-0.71520361,0.69891616,118.99393,338.67144)"><flowRegion
           id="flowRegion4196"><rect
             id="rect4198"
             width="145.46196"
             height="150.00766"
             x="43.941635"
             y="98.140587" /></flowRegion><flowPara
           id="flowPara4200" /></flowRoot>      <text
         xml:space="preserve"
         style="font-style:normal;font-weight:normal;font-size:40px;line-height:125%;font-family:sans-serif;letter-spacing:0px;word-spacing:0px;fill:#000000;fill-opacity:1;stroke:none;stroke-width:1px;stroke-linecap:butt;stroke-linejoin:miter;stroke-opacity:1"
         x="252.14975"
         y="141.14725"
         id="text4218"
         sodipodi:linespacing="125%"
         transform="matrix(0.69891616,0.71520361,-0.71520361,0.69891616,0,0)"><tspan
           sodipodi:role="line"
           id="tspan4220"
           x="252.14975"
           y="141.14725" /></text>
    </g>
    <text
       xml:space="preserve"
       style="font-style:normal;font-weight:normal;font-size:10.87703228px;line-height:125%;font-family:sans-serif;letter-spacing:0px;word-spacing:0px;fill:#000000;fill-opacity:1;stroke:none;stroke-width:1px;stroke-linecap:butt;stroke-linejoin:miter;stroke-opacity:1"
       x="122.6925"
       y="762.16852"
       id="text4620"
       sodipodi:linespacing="125%"><tspan
         sodipodi:role="line"
         id="tspan4622"
         x="122.6925"
         y="762.16852"
         style="font-style:italic;font-variant:normal;font-weight:normal;font-stretch:normal;font-family:sans-serif;-inkscape-font-specification:'sans-serif Italic'">Éditeur Markdown</tspan></text>
    <flowRoot
       xml:space="preserve"
       id="flowRoot4532"
       style="font-style:normal;font-weight:normal;font-size:40px;line-height:125%;font-family:sans-serif;letter-spacing:0px;word-spacing:0px;fill:#000000;fill-opacity:1;stroke:none;stroke-width:1px;stroke-linecap:butt;stroke-linejoin:miter;stroke-opacity:1"
       transform="translate(2.3897126,875.4731)"><flowRegion
         id="flowRegion4534"><rect
           id="rect4536"
           width="387.39349"
           height="176.77669"
           x="-249.50768"
           y="76.655182" /></flowRegion><flowPara
         id="flowPara4560" /></flowRoot>    <flowRoot
       xml:space="preserve"
       id="flowRoot4281"
       style="font-style:normal;font-weight:normal;font-size:40px;line-height:125%;font-family:sans-serif;letter-spacing:0px;word-spacing:0px;fill:#000000;fill-opacity:1;stroke:none;stroke-width:1px;stroke-linecap:butt;stroke-linejoin:miter;stroke-opacity:1"
       transform="translate(-327.32929,1085.7599)"><flowRegion
         id="flowRegion4283"><rect
           id="rect4285"
           width="161.08662"
           height="255.64505"
           x="338.57141"
           y="-275.69177" /></flowRegion><flowPara
         id="flowPara4287"
         style="font-style:normal;font-variant:normal;font-weight:bold;font-stretch:normal;font-size:10px;font-family:sans-serif;-inkscape-font-specification:'sans-serif Bold'"># La fête de Juliette</flowPara><flowPara
         id="flowPara4289"
         style="font-size:10px" /><flowPara
         id="flowPara4291"
         style="font-size:10px">À l'occasion de la grande soirée donnée en son honneur au [<flowSpan
   style="fill:#0000ff"
   id="flowSpan4309">château de Combrie</flowSpan>](<flowSpan
   style="font-style:italic;font-variant:normal;font-weight:normal;font-stretch:normal;font-family:sans-serif;-inkscape-font-specification:'sans-serif Italic'"
   id="flowSpan4311">http://chateaucombrie.com</flowSpan>), Juliette remarqua la <flowSpan
   style="fill:#008000"
   id="flowSpan4313">*veste damassée*</flowSpan> que portait Nicolas, le jardinier qui fit tant d'efforts pour paraître élégant ce soir-là.</flowPara><flowPara
         id="flowPara4293"
         style="font-size:10px" /><flowPara
         id="flowPara4295"
         style="font-size:10px">C'est bien lui qui avait successivement ramassé et soigné :</flowPara><flowPara
         id="flowPara4297"
         style="font-size:10px" /><flowPara
         id="flowPara4299"
         style="font-size:10px"><flowSpan
   style="font-style:normal;font-variant:normal;font-weight:bold;font-stretch:normal;font-family:sans-serif;-inkscape-font-specification:'sans-serif Bold';fill:#ff0000"
   id="flowSpan4315">* </flowSpan>un petit écureuil roux,</flowPara><flowPara
         style="font-size:10px"
         id="flowPara4305"><flowSpan
   style="font-style:normal;font-variant:normal;font-weight:bold;font-stretch:normal;font-family:sans-serif;-inkscape-font-specification:'sans-serif Bold';fill:#ff0000"
   id="flowSpan4317">* </flowSpan>une mésange charbonnière,</flowPara><flowPara
         style="font-size:10px"
         id="flowPara4307"><flowSpan
   style="font-style:normal;font-variant:normal;font-weight:bold;font-stretch:normal;font-family:sans-serif;-inkscape-font-specification:'sans-serif Bold';fill:#ff0000"
   id="flowSpan4319">* </flowSpan>Gaston, le hérisson.</flowPara><flowPara
         id="flowPara4301"
         style="font-size:10px" /><flowPara
         id="flowPara4303"
         style="font-size:10px" /></flowRoot>    <flowRoot
       xml:space="preserve"
       id="flowRoot4281-3"
       style="font-style:normal;font-weight:normal;font-size:40px;line-height:125%;font-family:sans-serif;letter-spacing:0px;word-spacing:0px;fill:#000000;fill-opacity:1;stroke:none;stroke-width:1px;stroke-linecap:butt;stroke-linejoin:miter;stroke-opacity:1"
       transform="matrix(0.9580901,0,0,0.9580901,-142.5308,1075.0012)"><flowRegion
         id="flowRegion4283-6"><rect
           id="rect4285-7"
           width="168.66275"
           height="253.62474"
           x="338.57141"
           y="-275.69177" /></flowRegion><flowPara
         id="flowPara4287-5"
         style="font-style:normal;font-variant:normal;font-weight:bold;font-stretch:normal;font-size:10px;font-family:'DejaVu Serif';-inkscape-font-specification:'DejaVu Serif Bold';text-align:center;text-anchor:middle">La fête de Juliette</flowPara><flowPara
         id="flowPara4289-3"
         style="font-style:normal;font-variant:normal;font-weight:normal;font-stretch:normal;font-size:10px;font-family:'DejaVu Serif';-inkscape-font-specification:'DejaVu Serif'" /><flowPara
         id="flowPara4291-5"
         style="font-style:normal;font-variant:normal;font-weight:normal;font-stretch:normal;font-size:10px;font-family:'DejaVu Serif';-inkscape-font-specification:'DejaVu Serif';text-align:justify;text-anchor:start">À l'occasion de la grande soirée donnée en son honneur au <flowSpan
   style="font-style:normal;font-variant:normal;font-weight:normal;font-stretch:normal;font-family:'DejaVu Serif';-inkscape-font-specification:'DejaVu Serif';text-align:justify;text-anchor:start;fill:#0000ff"
   id="flowSpan4309-6">château de Combrie</flowSpan>, Juliette remarqua la <flowSpan
   style="font-style:italic;font-variant:normal;font-weight:normal;font-stretch:normal;font-family:'DejaVu Serif';-inkscape-font-specification:'DejaVu Serif Italic';text-align:justify;text-anchor:start"
   id="flowSpan4397">veste damassée</flowSpan> que portait Nicolas, le jardinier qui fit tant d'efforts pour paraître élégant ce soir-là.</flowPara><flowPara
         id="flowPara4293-1"
         style="font-style:normal;font-variant:normal;font-weight:normal;font-stretch:normal;font-size:10px;font-family:'DejaVu Serif';-inkscape-font-specification:'DejaVu Serif';text-align:justify;text-anchor:start" /><flowPara
         id="flowPara4295-2"
         style="font-style:normal;font-variant:normal;font-weight:normal;font-stretch:normal;font-size:10px;font-family:'DejaVu Serif';-inkscape-font-specification:'DejaVu Serif';text-align:justify;text-anchor:start">C'est bien lui qui avait successivement ramassé et soigné :</flowPara><flowPara
         id="flowPara4297-7"
         style="font-style:normal;font-variant:normal;font-weight:normal;font-stretch:normal;font-size:10px;font-family:'DejaVu Serif';-inkscape-font-specification:'DejaVu Serif';text-align:justify;text-anchor:start" /><flowPara
         id="flowPara4299-0"
         style="font-style:normal;font-variant:normal;font-weight:normal;font-stretch:normal;font-size:10px;font-family:'DejaVu Serif';-inkscape-font-specification:'DejaVu Serif';text-align:justify;text-anchor:start">— un petit écureuil roux,</flowPara><flowPara
         style="font-style:normal;font-variant:normal;font-weight:normal;font-stretch:normal;font-size:10px;font-family:'DejaVu Serif';-inkscape-font-specification:'DejaVu Serif';text-align:justify;text-anchor:start"
         id="flowPara4305-3">— une mésange charbonnière,</flowPara><flowPara
         style="font-style:normal;font-variant:normal;font-weight:normal;font-stretch:normal;font-size:10px;font-family:'DejaVu Serif';-inkscape-font-specification:'DejaVu Serif';text-align:justify;text-anchor:start"
         id="flowPara4307-0">— Gaston, le hérisson.</flowPara><flowPara
         id="flowPara4301-2"
         style="font-style:normal;font-variant:normal;font-weight:normal;font-stretch:normal;font-size:10px;font-family:'DejaVu Serif';-inkscape-font-specification:'DejaVu Serif'" /><flowPara
         id="flowPara4303-6"
         style="font-style:normal;font-variant:normal;font-weight:normal;font-stretch:normal;font-size:10px;font-family:'DejaVu Serif';-inkscape-font-specification:'DejaVu Serif'" /></flowRoot>    <path
       style="fill:none;fill-rule:evenodd;stroke:#000000;stroke-width:1.70592773;stroke-linecap:butt;stroke-linejoin:miter;stroke-miterlimit:4;stroke-dasharray:none;stroke-opacity:1"
       d="m 175.63087,792.51271 0,254.81109"
       id="path4399"
       inkscape:connector-curvature="0" />
    <text
       xml:space="preserve"
       style="font-style:normal;font-weight:normal;font-size:9.99628258px;line-height:125%;font-family:sans-serif;letter-spacing:0px;word-spacing:0px;fill:#000000;fill-opacity:1;stroke:none;stroke-width:1px;stroke-linecap:butt;stroke-linejoin:miter;stroke-opacity:1"
       x="14.930861"
       y="785.4317"
       id="text4407"
       sodipodi:linespacing="125%"><tspan
         sodipodi:role="line"
         id="tspan4409"
         x="14.930861"
         y="785.4317">Fichier   Édition   Aide</tspan></text>
    <path
       style="fill:none;fill-rule:evenodd;stroke:#000000;stroke-width:1.00272954px;stroke-linecap:butt;stroke-linejoin:miter;stroke-opacity:1"
       d="m 6.4303228,792.03936 348.3763572,0"
       id="path4411"
       inkscape:connector-curvature="0" />
    <path
       style="fill:none;fill-rule:evenodd;stroke:#000000;stroke-width:1.04158807px;stroke-linecap:butt;stroke-linejoin:miter;stroke-opacity:1"
       d="m 51.318284,771.3527 0,20.53572"
       id="path4415"
       inkscape:connector-curvature="0" />
    <path
       style="fill:none;fill-rule:evenodd;stroke:#000000;stroke-width:1.03343654px;stroke-linecap:butt;stroke-linejoin:miter;stroke-opacity:1"
       d="m 96.675422,771.87572 0,19.83412"
       id="path4417"
       inkscape:connector-curvature="0" />
    <path
       style="fill:none;fill-rule:evenodd;stroke:#000000;stroke-width:1.03343654px;stroke-linecap:butt;stroke-linejoin:miter;stroke-opacity:1"
       d="m 129.0036,771.66367 0,19.83412"
       id="path4417-0"
       inkscape:connector-curvature="0" />
    <path
       style="fill:none;fill-rule:evenodd;stroke:#000000;stroke-width:1px;stroke-linecap:butt;stroke-linejoin:miter;stroke-opacity:1"
       d="m 7.9455535,771.33127 346.4823165,0"
       id="path4411-6"
       inkscape:connector-curvature="0" />
  </g>
</svg>
